{
  "items": [
    {
      "urls": [
        "http://libregraphicsmeeting.org/2015/program/#--state-of-the-libre-graphics", 
        "http://video.constantvzw.org/LGM15/day-01/01-state_of_libre_graphics.ogv", 
        "http://video.constantvzw.org/LGM15/day-01/01-state_of_libre_graphics.pdf"
      ]
    }, 
    {
      "urls": [
        "http://libregraphicsmeeting.org/2015/program/#pathum-egodawatta-jumping", 
        "http://video.constantvzw.org/LGM15/day-01/06-Pathum_Egodawatta-Jumping.ogv"
      ]
    }, 
    {
      "urls": [
        "http://libregraphicsmeeting.org/2015/program/#kelvin-ma-creating-textbook-grade-svg-illustrations-for-wikipedia", 
        "http://video.constantvzw.org/LGM15/day-01/02-Kelvin_Ma_illustrations_for_Wikipedia.ogv", 
        "http://video.constantvzw.org/LGM15/day-01/02-Kelvin_Ma_illustrations_for_Wikipedia.pdf"
      ]
    }, 
    {
      "urls": [
        "http://libregraphicsmeeting.org/2015/program/#matt-lee-the-list-powered-by-creative-commons", 
        "http://video.constantvzw.org/LGM15/day-01/03-Matt_Lee-List_CC.ogv", 
        "http://video.constantvzw.org/LGM15/day-01/03-Matt_Lee-List_CC.pdf"
      ]
    }, 
    {
      "urls": [
        "http://libregraphicsmeeting.org/2015/program/#jon-nordby-imgflo%3A-on-demand-serverside-image-processing", 
        "http://video.constantvzw.org/LGM15/day-01/04-Jon_Nordby-imgflo.ogv", 
        "http://video.constantvzw.org/LGM15/day-01/04-Jon-Nordby-Imgflo.pdf"
      ]
    }, 
    {
      "urls": [
        "http://libregraphicsmeeting.org/2015/program/#erwin-sacluti-wilber-for-us%21"
      ]
    }, 
    {
      "urls": [
        "http://libregraphicsmeeting.org/2015/program/#hong-phuc-dang-towards-open-textile-and-garment-production", 
        "http://video.constantvzw.org/LGM15/day-02/18-Hong_Phuc_Dang-Open_Textile.ogv", 
        "http://video.constantvzw.org/LGM15/day-02/18-Hong_Phuc_Dang-Open_Textile.pdf"
      ]
    }, 
    {
      "urls": [
        "http://libregraphicsmeeting.org/2015/program/#peter-sikking-metapolator%3A-designing-interaction-for-creative-pros", 
        "http://video.constantvzw.org/LGM15/day-01/05-Peter_Sikking-Metapolator.ogv", 
        "http://video.constantvzw.org/LGM15/day-01/05-Peter_Sikking-Metapolator.pdf"
      ]
    }, 
    {
      "urls": [
        "http://libregraphicsmeeting.org/2015/program/#myriam-cea-why-are-black-plums-red-when-they-are-green%3F", 
        "http://video.constantvzw.org/LGM15/day-01/07-Myriam_Cea-Black_plums.ogv", 
        "http://video.constantvzw.org/LGM15/day-01/07-Myriam_Cea-Black_plums.pdf"
      ]
    }, 
    {
      "urls": [
        "http://libregraphicsmeeting.org/2015/program/#antonio-roberts-allowing-mistakes-to-happen", 
        "http://video.constantvzw.org/LGM15/day-01/08-Antonio_Roberts-Mistakes.ogv", 
        "http://video.constantvzw.org/LGM15/day-01/08-Antonio_Roberts-Mistakes.pdf"
      ]
    }, 
    {
      "urls": [
        "http://libregraphicsmeeting.org/2015/program/#amelia-bellamy-royds-accessible-graphics-on-the-web", 
        "http://video.constantvzw.org/LGM15/day-02/09-Amelia_Bellamy_Royds-AccessibleGraphics.ogv"
      ]
    }, 
    {
      "urls": [
        "http://libregraphicsmeeting.org/2015/program/#carl-chouinard-designing-websites-using-constraints-with-gss", 
        "http://video.constantvzw.org/LGM15/day-02/10-Carl_Chouinard-GSS.ogv", 
        "http://video.constantvzw.org/LGM15/day-02/10-Carl_Chouinard-GSS.pdf"
      ]
    }, 
    {
      "urls": [
        "http://libregraphicsmeeting.org/2015/program/#eric-schrijver-creating-realtime-collaborative-web-applications-with-derby.js-and-meteor.js", 
        "http://video.constantvzw.org/LGM15/day-02/11-Eric%20Schrijver-Derby.js_Meteor.js.ogv"
      ]
    }, 
    {
      "urls": [
        "http://libregraphicsmeeting.org/2015/program/#chris-murphy-the-state-of-color-management", 
        "http://video.constantvzw.org/LGM15/day-02/12-Chris_Murphy-Color_Management.ogv", 
        "http://video.constantvzw.org/LGM15/day-02/12-ChrisMurphy-Color_Management.pdf"
      ]
    }, 
    {
      "urls": [
        "http://libregraphicsmeeting.org/2015/program/#jan-christoph-borchardt-pushing-open-source-ux-design-%E2%80%93-how-we-do-it-in-owncloud", 
        "http://video.constantvzw.org/LGM15/day-02/13-Jan-Christoph_Borchardt-ownCloud.ogv"
      ]
    }, 
    {
      "urls": [
        "http://libregraphicsmeeting.org/2015/program/#alexandre-gauthier-foichat-natron%3A-compositing-with-blender-integration", 
        "http://video.constantvzw.org/LGM15/day-02/14-Alexandre_Gauthier_Foichat-Natron.ogv", 
        "http://video.constantvzw.org/LGM15/day-02/14-Alexandre_Gauthier_Foichat-Natron.pdf"
      ]
    }, 
    {
      "urls": [
        "http://libregraphicsmeeting.org/2015/program/#st%C3%A9phanie-vilayphiou-html2print", 
        "http://video.constantvzw.org/LGM15/day-02/15-St%c3%a9phanie_Vilayphiou,%20Colm_ONeill-Html2print.ogv"
      ]
    }, 
    {
      "urls": [
        "http://libregraphicsmeeting.org/2015/program/#shankari-priyadarshini-ravichandran-libre-fonts-for-tamil", 
        "http://video.constantvzw.org/LGM15/day-02/16-Shankari_Priyadarshini_Ravichandran-Tamil_fonts.ogv", 
        "http://video.constantvzw.org/LGM15/day-02/16-Shankari_Priyadarshini_Ravichandran-Tamil_fonts.pdf"
      ]
    }, 
    {
      "urls": [
        "http://libregraphicsmeeting.org/2015/program/#--on-going-coding-%2B-ad-hoc-meetings-13%3A00-15%3A20"
      ]
    }, 
    {
      "urls": [
        "http://libregraphicsmeeting.org/2015/program/#livio-fania-children-illustrations-with-mypaint-and-krita"
      ]
    }, 
    {
      "urls": [
        "http://libregraphicsmeeting.org/2015/program/#jan-christoph-borchardt-ux-review-of-each-other%E2%80%99s-projects"
      ]
    }, 
    {
      "urls": [
        "http://libregraphicsmeeting.org/2015/program/#christina-kral-marshall-mcluhan-archive---media-sprint"
      ]
    }, 
    {
      "urls": [
        "http://libregraphicsmeeting.org/2015/program/#--on-going-coding-%2B-ad-hoc-meetings-13%3A00-15%3A20"
      ]
    }, 
    {
      "urls": [
        "http://libregraphicsmeeting.org/2015/program/#--lightning-talks", 
        "http://video.constantvzw.org/LGM15/day-02/17-Andre_Castro-Biblioteca.ogv"
      ]
    }, 
    {
      "urls": [
        "http://libregraphicsmeeting.org/2015/program/#louis-desjardins-text-interaction---how-far-and-how-better-can-it-get%3F"
      ]
    }, 
    {
      "urls": [
        "http://libregraphicsmeeting.org/2015/program/#loraine-furter-specimen-%E2%80%93-designing-fonts-%28hi%29story%28ies%29", 
        "http://video.constantvzw.org/LGM15/day-02/21-Loraine_Furter-SPECIMEN.ogv", 
        "http://video.constantvzw.org/LGM15/day-02/21-Loraine_Furter-SPECIMEN.pdf"
      ]
    }, 
    {
      "urls": [
        "http://libregraphicsmeeting.org/2015/program/#colm-o%27neill-stroke-fonts", 
        "http://video.constantvzw.org/LGM15/day-02/22-OSP_Stroke-Fonts.ogv", 
        "http://video.constantvzw.org/LGM15/day-02/22-OSP_Stroke-Fonts.pdf"
      ]
    }, 
    {
      "urls": [
        "http://libregraphicsmeeting.org/2015/program/#nathan-willis-thrilling-developments-from-the-field-of-boring-font-utilities", 
        "http://video.constantvzw.org/LGM15/day-02/23-Nate_Willis-Thrilling_Developments.ogv", 
        "http://video.constantvzw.org/LGM15/day-02/23-Nate_Willis-Thrilling_Developments.pdf"
      ]
    }, 
    {
      "urls": [
        "http://libregraphicsmeeting.org/2015/program/#dave-crossland-goodbye-fontforge", 
        "http://video.constantvzw.org/LGM15/day-02/24-Dave_Crossland-Goodbye_Fontforge.ogv"
      ]
    }, 
    {
      "urls": [
        "http://libregraphicsmeeting.org/2015/program/#loraine-furter-specimen-sprint"
      ]
    }, 
    {
      "urls": [
        "http://libregraphicsmeeting.org/2015/program/#ben-sainsbury-using-tangibles-for-pre-production"
      ]
    }, 
    {
      "urls": [
        "http://libregraphicsmeeting.org/2015/program/#chris-murphy-color%3A-putting-it-together"
      ]
    }, 
    {
      "urls": [
        "http://libregraphicsmeeting.org/2015/program/#--on-going-coding-%2B-ad-hoc-meetings-10%3A00-14%3A20"
      ]
    }, 
    {
      "urls": [
        "http://libregraphicsmeeting.org/2015/program/#--break"
      ]
    }, 
    {
      "urls": [
        "http://libregraphicsmeeting.org/2015/program/#gijs-de-heij-stroke-fonts-%E2%80%94-open-call-for-a-standard%3F"
      ]
    }, 
    {
      "urls": [
        "http://libregraphicsmeeting.org/2015/program/#larisa-blazic-a-network-of-free-culture-aware-educators-in-art%2C-music-and-design-education"
      ]
    }, 
    {
      "urls": [
        "http://libregraphicsmeeting.org/2015/program/#chris-murphy-color%3A-now-what%3F", 
        "http://video.constantvzw.org/LGM15/day-02/19-Chris_Murphy-Color_Management2.ogv"
      ]
    }, 
    {
      "urls": [
        "http://libregraphicsmeeting.org/2015/program/#--on-going-coding-%2B-ad-hoc-meetings-10%3A00-14%3A20"
      ]
    }, 
    {
      "urls": [
        "http://libregraphicsmeeting.org/2015/program/#--break"
      ]
    }, 
    {
      "urls": [
        "http://libregraphicsmeeting.org/2015/program/#--lightning-talks", 
        "http://video.constantvzw.org/LGM15/day-03/25-Lightning_talk_Simon_Budig.ogv", 
        "http://video.constantvzw.org/LGM15/day-03/26-Lightning_talk-St%c3%a9phanie_Vilayphiou.ogv"
      ]
    }, 
    {
      "urls": [
        "http://libregraphicsmeeting.org/2015/program/#phil-langley-digital-steganography%3A-a-new-file-type-for-3d-models", 
        "http://video.constantvzw.org/LGM15/day-03/27-Phil_Langley-Digital_Stenography.ogv", 
        "http://video.constantvzw.org/LGM15/day-03/27-Phil_Langley-Digital_Stenography.pdf"
      ]
    }, 
    {
      "urls": [
        "http://libregraphicsmeeting.org/2015/program/#brent-patterson-using-open-source-to-teach-critical-and-creative-thinking", 
        "http://video.constantvzw.org/LGM15/day-03/28-Brent_Patterson-OS_teaching.ogv", 
        "http://video.constantvzw.org/LGM15/day-03/28-Brent_Patterson-OS_teaching.pdf"
      ]
    }, 
    {
      "urls": [
        "http://libregraphicsmeeting.org/2015/program/#yvonne-micklich-making--become-a-maker-with-open-source-software", 
        "http://video.constantvzw.org/LGM15/day-03/29-Liam_Quin-Stick_websites.ogv", 
        "http://video.constantvzw.org/LGM15/day-03/29-Liam_Quin-Stick_websites.pdf"
      ]
    }, 
    {
      "urls": [
        "http://libregraphicsmeeting.org/2015/program/#livio-fania-low-cost-floss-exhibition"
      ]
    }, 
    {
      "urls": [
        "http://libregraphicsmeeting.org/2015/program/#andy-fitzsimon-generative-design-is-awesome%2C-awesome%2C-awesome."
      ]
    }, 
    {
      "urls": [
        "http://libregraphicsmeeting.org/2015/program/#tom-lechner-a-brief-history-of-lines", 
        "http://video.constantvzw.org/LGM15/day-03/30-Tom_Lechner-History_of_Lines.ogv"
      ]
    }, 
    {
      "urls": [
        "http://libregraphicsmeeting.org/2015/program/#%C3%98yvind-kol%C3%A5s-microraptor-gui%2C-an-immediate-compromise", 
        "http://video.constantvzw.org/LGM15/day-03/31-0yvind_Kolas-Microraptor.ogv"
      ]
    }, 
    {
      "urls": [
        "http://libregraphicsmeeting.org/2015/program/#markus-mohrhard-opengl-in-libreoffice", 
        "http://video.constantvzw.org/LGM15/day-03/32-Markus_Mohrhard-OpenGL.ogv", 
        "http://video.constantvzw.org/LGM15/day-03/32-Markus_Mohrhard-OpenGL.pdf"
      ]
    }, 
    {
      "urls": [
        "http://libregraphicsmeeting.org/2015/program/#fridrich-strba-document-liberation-project%3A-one-year-after", 
        "http://video.constantvzw.org/LGM15/day-03/33-Strba+Filippov-DLP.ogv", 
        "http://video.constantvzw.org/LGM15/day-03/33-Strba+Filippov-DLP.pdf"
      ]
    }, 
    {
      "urls": [
        "http://libregraphicsmeeting.org/2015/program/#--lgm2016-organisation-meeting"
      ]
    }, 
    {
      "urls": [
        "http://libregraphicsmeeting.org/2015/program/#ginger-coons-the-first-code-of-conduct-year"
      ]
    }, 
    {
      "urls": [
        "http://libregraphicsmeeting.org/2015/program/#--on-going-coding-%2B-ad-hoc-meetings-10%3A00-13%3A20"
      ]
    }, 
    {
      "urls": [
        "http://libregraphicsmeeting.org/2015/program/#antonio-roberts-allowing-mistakes-to-happen-workshop"
      ]
    }, 
    {
      "urls": [
        "http://libregraphicsmeeting.org/2015/program/#nathan-willis-bringing-opentype-features-to-open-source"
      ]
    }, 
    {
      "urls": [
        "http://libregraphicsmeeting.org/2015/program/#larisa-blazic-floss-manuals---libre-graphics-update%26expand"
      ]
    }, 
    {
      "urls": [
        "http://libregraphicsmeeting.org/2015/program/#--on-going-coding-%2B-ad-hoc-meetings-10%3A00-13%3A20"
      ]
    }, 
    {
      "urls": [
        "http://libregraphicsmeeting.org/2015/program/#diane-jung-how-hobbyists-impact-culture-by-opening-and-archiving", 
        "http://video.constantvzw.org/LGM15/day-04/34-Diane_Jung-Hobbyist_culture.ogv", 
        "http://video.constantvzw.org/LGM15/day-04/34-Diane_Jung-Hobbyist_culture.pdf"
      ]
    }, 
    {
      "urls": [
        "http://libregraphicsmeeting.org/2015/program/#jean-fran%C3%A7ois-fortin-tam-ten-years-of-pitivi-%28and-of-libre-video-editing-in-general%29", 
        "http://video.constantvzw.org/LGM15/day-04/35-JF_Fortin_Tam-Pitivi.ogv", 
        "http://video.constantvzw.org/LGM15/day-04/35-JF_Fortin_Tam-Pitivi.pdf"
      ]
    }, 
    {
      "urls": [
        "http://libregraphicsmeeting.org/2015/program/#jehan-pag%C3%A8s-project-of-a-2d-libre-movie%3A-zemarmot", 
        "http://video.constantvzw.org/LGM15/day-04/36-Jehan_Pages+Han_Aryeom-ZeMarMot.ogv", 
        "http://video.constantvzw.org/LGM15/day-04/36-Jehan_Pages+Han_Aryeom-ZeMarMot.pdf"
      ]
    }, 
    {
      "urls": [
        "http://libregraphicsmeeting.org/2015/program/#david-andrade-how-to-build-an-online-animation-studio", 
        "http://video.constantvzw.org/LGM15/day-04/37-Andrade+Buhajczuk-animation_studio.ogv", 
        "http://video.constantvzw.org/LGM15/day-04/37-Andrade+Buhajczuk-animation_studio.pdf"
      ]
    }, 
    {
      "urls": [
        "http://libregraphicsmeeting.org/2015/program/#femke-snelting-%27i-think-that-conversations-are-the-best%2C-biggest-thing-that-free-software-has-to-offer-its-user%27", 
        "http://video.constantvzw.org/LGM15/day-04/38-Snelting-Conversations.ogv", 
        "http://video.constantvzw.org/LGM15/day-04/38-Snelting-Conversations.pdf"
      ]
    }, 
    {
      "urls": [
        "http://libregraphicsmeeting.org/2015/program/#larisa-blasic-lgm2016%3A-london"
      ]
    }, 
    {
      "urls": [
        "http://libregraphicsmeeting.org/2015/program/#--proposals-for-lgm2017-%2B-goodbye-lgm2015"
      ]
    }, 
    {
      "urls": [
        "http://video.constantvzw.org/LGM15/day-02/20-Tom_Lechner-Blender_game.ogv"
      ]
    }
  ]
}
