{
	"item": "div.schedule_item",
	"keys": {
		"presenter": {"required": false, "selector": ".schedule_speaker", "wrap": "span", "delimiter": ","},
		"title": {"required": false, "selector": ".schedule_title", "wrap": "span"}
	}
}
