{
	"item": "div[itemscope]",
	"keys": {
		"title": {
			"selector": "p:first-child strong",
			"wrap": "span"
		},
		"presenter": {
			"selector": "p:first-child em",
			"wrap": "span",
			"delimiter": ","
		}
	}
}
